// $ANTLR 2.7.6 (2005-12-22): builder.g -> GCLBuilderTokenTypes.txt$
GCLBuilder    // output token vocab name
ALAP="alap"=4
WHILE="while"=5
TRY="try"=6
ELSE="else"=7
DO="do"=8
IF="if"=9
CHOICE="choice"=10
OR="or"=11
PROC="proc"=12
PROCUSE=13
PROGRAM=14
BLOCK=15
TRUE="true"=16
LCURLY=17
RCURLY=18
IDENTIFIER=19
LPAREN=20
RPAREN=21
SEMICOLON=22
PLUS=23
STAR=24
SHARP=25
AND=26
COMMA=27
DOT=28
NOT=29
RSQUARE=30
DIGIT=31
LETTER=32
NEWLINE=33
WS=34
SPECIAL=35
