// $ANTLR 2.7.6 (2005-12-22): gcl.g -> GCLParserTokenTypes.txt$
GCLParser    // output token vocab name
ALAP="alap"=4
UNTIL="until"=5
TRY="try"=6
ELSE="else"=7
DO="do"=8
PROGRAM=9
LCURLY=10
RCURLY=11
SEMICOLON=12
OR=13
IDENTIFIER=14
LPAREN=15
RPAREN=16
AND=17
COMMA=18
DOT=19
NOT=20
RSQUARE=21
DIGIT=22
LETTER=23
NEWLINE=24
WS=25
SPECIAL=26
